{
  "contacts": [
    {
      "id": 1,
      "name": "Никита",
      "surname": "Глазков",
      "phone": "+79673357967"
    },
    {
      "id": 2,
      "name": "Билл",
      "surname": "Гейтc",
      "phone": "+77778732321"
    },
    {
      "id": 3,
      "name": "Марк",
      "surname": "Цукерберг",
      "phone": "+77678136762"
    },
    {
      "id": 4,
      "name": "Виктор",
      "surname": "Пелевин",
      "phone": "+79893289832"
    },
    {
      "id": 9,
      "name": "Федор",
      "surname": "Достоевский",
      "phone": "+70990909090"
    },
    {
      "id": 10,
      "name": "Никита",
      "surname": "Хрущёв",
      "phone": "+70909090909"
    },
    {
      "id": 12,
      "name": "Бернхард",
      "surname": "Шлинк",
      "phone": "+78989898989"
    }
  ]
}